<?xml version="1.0" standalone="no"?>
<!DOCTYPE svg PUBLIC "-//W3C//DTD SVG 1.1//EN" "http://www.w3.org/Graphics/SVG/1.1/DTD/svg11.dtd">
<svg xmlns="http://www.w3.org/2000/svg">
<metadata>Generated by Fontastic.me</metadata>
<defs>
<font id="workExample" horiz-adv-x="512">
<font-face font-family="workExample" units-per-em="512" ascent="480" descent="-32"/>
<missing-glyph horiz-adv-x="512" />

<glyph unicode="&#97;" d="M410 203l-80 38-34 16c15 9 27 24 35 41 6 14 10 29 10 46 0 9-1 18-4 27-10 41-42 72-81 72-38 0-70-30-81-70-2-9-4-19-4-29 0-18 4-34 11-49 8-16 20-30 35-39l-33-15-82-38c-7-4-12-12-12-21l0-91c0-12 8-22 19-22l123 0 0 70c0 0 0 1 0 2l0 0 20 35 0 0c1 1 2 2 4 2 2 0 3-1 4-2l0 0 0-1c0 0 0 0 0 0l20-34 0 0c0-1 0-2 0-2l0-70 123 0c11 0 19 10 19 22l0 91c0 9-4 17-12 21z m-130 23l0 0-20-35 0 0c-1-1-2-2-4-2-2 0-3 1-4 2l0 0 0 0c0 0 0 0 0 0l-20 35 0 0c0 0 0 1 0 2 0 2 2 4 4 4l40 0c2 0 4-2 4-4 0-1 0-2 0-2z"/>
<glyph unicode="&#98;" d="M453 290l-52 5c-4 12-9 25-15 36l33 41c4 4 4 11 0 15l-32 32c-3 2-5 3-8 3-3 0-5-1-7-3l-41-33c-12 6-24 11-36 15l-5 52c-1 6-6 10-11 10l-46 0c-5 0-10-4-11-10l-5-52c-12-4-24-9-36-15l-41 33c-2 2-4 3-7 3-3 0-5-1-8-3l-32-32c-4-4-4-11 0-15l33-41c-6-11-11-24-15-36l-52-5c-6-1-10-6-10-11l0-46c0-5 4-10 10-11l52-5c4-12 9-24 15-36l-33-41c-4-4-4-11 0-15l32-32c3-2 5-3 8-3 3 0 5 1 7 3l41 33c12-6 24-11 36-15l5-52c1-6 6-10 11-10l46 0c5 0 10 4 11 10l5 52c12 4 24 9 36 15l41-33c2-2 4-3 7-3 3 0 5 1 8 3l32 32c4 4 4 11 0 15l-33 41c6 12 11 24 15 36l52 5c6 1 10 6 10 11l0 46c0 5-4 10-10 11z m-197-95c-34 0-61 27-61 61 0 34 27 61 61 61 34 0 61-27 61-61 0-34-27-61-61-61z"/>
<glyph unicode="&#99;" d="M344 357c0-3-1-5-3-7l-112-112 112-113c2-1 3-4 3-6 0-3-1-5-3-7l-14-14c-2-2-5-3-7-3-2 0-5 1-7 3l-133 133c-2 2-3 4-3 7 0 2 1 4 3 6l133 133c2 2 5 3 7 3 2 0 5-1 7-3l14-14c2-2 3-4 3-6z"/>
<glyph unicode="&#100;" d="M335 238c0-3-1-5-3-7l-133-133c-2-2-5-3-7-3-2 0-5 1-7 3l-14 14c-2 2-3 4-3 7 0 2 1 5 3 6l112 113-112 112c-2 2-3 4-3 7 0 2 1 4 3 6l14 14c2 2 5 3 7 3 2 0 5-1 7-3l133-133c2-2 3-4 3-6z"/>
<glyph unicode="&#101;" d="M487 375c7-10 9-23 5-36l-79-259c-3-12-11-23-22-31-11-8-22-12-35-12l-263 0c-15 0-29 5-43 15-13 10-23 23-28 37-5 13-5 25-1 37 0 0 0 3 1 7 1 5 1 8 1 11 0 2 0 4-1 6 0 3-1 5-1 6 1 2 2 4 3 6 1 2 2 4 4 6 2 3 4 5 5 7 5 7 9 16 13 26 4 10 7 19 9 26 0 2 0 5 0 9-1 4-1 6 0 8 0 2 2 5 4 8 3 3 5 5 5 7 4 6 8 15 12 26 4 11 7 19 7 26 1 1 0 4 0 9-1 4-1 7 0 8 1 2 3 5 6 8 4 4 6 6 6 7 4 5 8 13 13 24 4 11 7 20 7 28 1 1 0 4 0 7-1 3-1 6-1 7 0 2 1 4 3 6 1 1 3 4 5 6 2 3 3 5 5 6 1 2 3 5 4 9 2 3 3 7 5 10 1 3 2 6 4 10 2 4 4 7 6 9 2 3 4 5 7 7 3 2 7 3 11 3 3 0 8 0 13-1l0-1c7 2 12 2 14 2l218 0c14 0 25-5 32-16 8-10 10-23 6-37l-79-259c-7-22-13-37-20-43-7-7-19-10-37-10l-248 0c-5 0-9-2-11-5-2-3-2-7 0-12 4-13 18-20 41-20l264 0c5 0 10 2 16 5 5 3 8 6 10 11l85 282c2 5 2 10 2 17 7-3 13-7 17-13z m-304 0c-1-3-1-5 0-7 1-1 3-2 6-2l174 0c2 0 4 1 7 2 2 2 4 4 5 7l6 18c0 3 0 5-1 7-1 1-3 2-6 2l-173 0c-3 0-5-1-8-2-2-2-4-4-4-7z m-24-73c-1-3-1-5 0-7 2-2 3-2 6-2l174 0c2 0 5 0 7 2 3 2 4 4 5 7l6 18c1 2 0 5-1 6-1 2-3 3-5 3l-174 0c-3 0-5-1-7-3-3-1-4-4-5-6z"/>
<glyph unicode="&#102;" d="M421 256c0 22-5 44-13 64-9 20-21 38-36 52-14 15-32 27-52 36-20 8-42 13-64 13-22 0-44-5-64-13-20-9-38-21-52-36-15-14-27-32-36-52-8-20-13-42-13-64 0-22 5-44 13-64 9-20 21-38 36-52 14-15 32-27 52-36 20-8 42-13 64-13 22 0 44 5 64 13 20 9 38 21 52 36 15 14 27 32 36 52 8 20 13 42 13 64z m78-79c0-3-2-5-5-6l-84-27 0-88c0-3-1-5-3-7-3-2-6-2-9-1l-83 27-52-71c-1-3-4-4-7-4-3 0-6 1-7 4l-52 71-83-27c-3-1-6-1-9 1-2 2-3 4-3 7l0 88-84 27c-3 1-5 3-5 6-1 3-1 6 1 8l51 71-51 71c-2 2-2 5-1 8 0 3 2 5 5 6l84 27 0 88c0 3 1 5 3 7 3 2 6 2 9 1l83-27 52 71c1 3 4 4 7 4 3 0 6-1 7-4l52-71 83 27c3 1 6 1 9-1 2-2 3-4 3-7l0-88 84-27c3-1 5-3 5-6 1-3 1-6-1-8l-51-71 51-71c2-2 2-5 1-8z"/>
<glyph unicode="&#103;" d="M253 492c65 0 120-22 167-67 46-45 70-100 72-165 0-65-22-121-68-167-45-47-100-71-165-73-65 0-121 22-167 68-47 45-71 100-72 165-1 65 21 121 67 167 46 47 101 71 166 72m0-31c-32 0-63-8-91-23 0 0 32-53 32-53 19 10 39 14 62 14 23 0 43-4 62-14 0 0 32 53 32 53-30 16-62 23-97 23m-126-267c-10 20-14 41-14 62 0 22 4 43 14 63 0 0-52 32-52 32-16-30-24-62-24-97 1-33 9-64 24-92 0 0 52 32 52 32m132-143c34 2 64 9 91 24 0 0-32 53-32 53-20-10-41-15-62-15-21 0-42 5-62 15 0 0-32-53-32-53 29-16 62-24 97-24m-3 92c31 0 58 11 80 34 22 22 33 48 33 79 0 31-11 58-33 80-22 22-49 33-80 33-31 0-58-11-80-33-22-22-33-49-33-80 0-31 11-57 33-79 22-23 49-34 80-34m129 51c0 0 53-32 53-32 16 33 23 65 23 97 0 33-8 64-23 92 0 0-53-32-53-32 10-20 14-41 14-63 0-21-4-42-14-62"/>
<glyph unicode="&#104;" d="M256 461c36 0 66-13 91-38 25-24 37-55 37-90 0-36-11-78-32-125-21-46-42-84-64-114 0 0-32-43-32-43-3 4-8 10-14 18-6 8-16 23-31 46-14 22-27 44-38 66-12 22-22 47-31 76-9 28-14 53-14 76 0 35 12 66 37 90 25 25 56 38 91 38m0-199c19 0 36 7 49 21 14 13 21 30 21 49 0 19-7 35-21 48-13 14-30 20-49 20-19 0-35-6-49-20-13-13-20-29-20-48 0-19 7-36 20-49 14-14 30-21 49-21"/>
<glyph unicode="&#105;" d="M230 207l-17-164 102 125 97-44 100 345z m282 262l-512-210 121-24 92-192-66 192z"/>
<glyph unicode="&#106;" d="M405 320l0 64c0 43-42 107-149 107-107 0-149-64-149-107l0-64-43 0 0-235c0-35 29-64 64-64l256 0c35 0 64 29 64 64l0 235z m-256 85c0 0 22 43 107 43 85 0 107-43 107-43l0-85-214 0z m256-320c0-11-9-21-21-21l-256 0c-12 0-21 10-21 21l0 192 298 0z m-170 70l0-48 42 0 0 48c13 8 22 21 22 37 0 24-19 43-43 43-24 0-43-19-43-43 0-16 9-29 22-37z"/>
<glyph unicode="&#107;" d="M448 320l-149 0 0-43 149 0 0-170-149 0c0-24-22-43-22-43l171 0c23 0 43 19 43 43l0 170c0 24-20 43-43 43z m-235 128l-170 0c-24 0-43-19-43-43l0-298c0-24 19-43 43-43l170 0c24 0 43 19 43 43l0 298c0 24-19 43-43 43z m-64-363l-42 0 0 43 42 0z m64 64l-170 0 0 256 170 0z"/>
<glyph unicode="&#108;" d="M213 331c44 0 79-33 85-75l75 0c-1 10-3 20-5 29l61 35-43 74-61-35c-19 19-42 33-69 40l0 70-85 0 0-70c-27-7-51-21-70-40l-60 35-43-74 61-35c-4-12-6-26-6-40 0-13 2-27 6-40l-61-35 43-74 60 35c19-18 43-32 70-40l0-70 85 0 0 151c-13-7-27-12-43-12-47 0-85 38-85 85 0 47 38 86 85 86z m278-203c0 8-2 15-4 23l40 23-22 36-39-22c-11 11-24 18-39 22l0 46-43 0 0-46c-15-4-29-11-40-22l-39 22-21-36 39-23c-2-8-3-15-3-23 0-8 1-15 3-23l-39-23 21-36 39 22c11-11 25-18 40-22l0-46 43 0 0 46c15 4 28 11 39 22l40-22 21 36-40 23c2 8 4 15 4 23z m-86-43c-23 0-42 19-42 43 0 24 19 43 42 43 24 0 43-19 43-43 0-24-19-43-43-43z"/>
<glyph unicode="&#109;" d="M174 128c0-11-4-21-12-29-9-8-18-12-29-12-12 0-22 4-30 12-8 8-12 18-12 29 0 11 4 21 12 29 8 8 18 12 30 12 11 0 20-4 29-12 8-8 12-18 12-29z m123-55c0-10-3-19-11-26-7-7-15-10-25-10-11 0-19 3-26 10-7 7-11 16-11 26 0 10 4 19 11 26 7 7 15 11 26 11 10 0 18-4 25-11 8-7 11-16 11-26z m-174 183c0-13-4-23-13-32-9-9-20-14-32-14-13 0-24 5-33 14-9 9-13 19-13 32 0 13 4 23 13 32 9 9 20 14 33 14 12 0 23-5 32-14 9-9 13-19 13-32z m298-128c0-9-4-16-10-23-6-6-14-9-22-9-9 0-17 3-23 9-6 7-9 14-9 23 0 9 3 16 9 23 6 6 14 9 23 9 8 0 16-3 22-9 6-7 10-14 10-23z m-238 256c0-14-5-26-15-36-10-9-22-14-35-14-14 0-26 5-36 14-10 10-15 22-15 36 0 14 5 26 15 36 10 9 22 14 36 14 13 0 25-5 35-14 10-10 15-22 15-36z m132 55c0-15-5-28-16-39-10-11-23-16-38-16-16 0-29 5-39 16-11 11-16 24-16 39 0 15 5 28 16 39 10 10 23 16 39 16 15 0 28-6 38-16 11-11 16-24 16-39z m156-183c0-8-3-14-8-19-5-6-12-8-20-8-7 0-14 2-19 8-5 5-8 11-8 19 0 8 3 14 8 19 5 6 12 8 19 8 8 0 15-2 20-8 5-5 8-11 8-19z m-60 128c0-6-2-12-6-16-5-5-10-7-16-7-7 0-12 2-17 7-4 4-6 10-6 16 0 6 2 12 6 16 5 5 10 7 17 7 6 0 11-2 16-7 4-4 6-10 6-16z"/>
<glyph unicode="&#110;" d="M451 162c38-28 56-46 60-62 4-19-7-26-40-64-32-37-61-36-84-36-23 0-61 12-121 48-22 14-49 33-74 54-15 12-35 30-52 48-12 12-24 25-32 35-21 25-40 52-54 74-36 60-54 105-54 128 0 23-1 52 36 84 38 33 45 44 64 40 16-4 34-23 62-60 28-37 46-64 40-76-8-15-25-23-56-39-11-6-32-18-28-28 5-13 28-55 81-109l13-13c48-44 84-63 96-68 10-4 22 17 28 28 16 31 24 48 39 56 12 6 39-12 76-40z m-34 255c-31 31-71 49-113 52l0 43c112-7 201-96 208-208l-43 0c-3 42-21 82-52 113z m-113 5c57-14 103-61 117-118l-44 0c-12 34-39 61-73 73z"/>
<glyph unicode="&#111;" d="M416 352c0-20-3-39-10-57l-1-1 0-1c-67-171-149-293-149-293 0 0-82 121-149 292l0 2-1 1c-7 18-10 37-10 57 0 88 72 160 160 160 88 0 160-72 160-160z m-160-32c26 0 48 22 48 48 0 26-22 48-48 48-26 0-48-22-48-48 0-26 22-48 48-48z"/>
<glyph unicode="&#112;" d="M448 218l-44 0c-4-14-10-27-17-39l32-32-54-54-33 32c-12-7-24-11-38-15l0-46-76 0 0 46c-13 4-26 8-38 15l-33-32-54 54 32 32c-7 12-13 25-17 39l-44 0 0 76 43 0c4 14 9 29 16 41l-30 30 54 54 29-29c13 8 27 13 42 17l0 41 76 0 0-41c15-4 29-9 42-17l29 29 54-54-30-30c7-12 13-27 16-41l43 0z m-192-16c30 0 54 24 54 54 0 30-24 54-54 54-30 0-54-24-54-54 0-30 24-54 54-54z"/>
<glyph unicode="&#113;" d="M192 92c-11 0-22 5-30 13l-121 118c-17 17-17 43 0 59 16 16 43 16 59 0l92-90 220 215c16 17 43 17 59 0 17-16 17-42 0-58l-249-244c-8-8-19-13-30-13z"/>
<glyph unicode="&#114;" d="M450 292l-42 42c-2 2-6 2-9 0l-115-116 0 0-1 0-15-59 0 0c-1-2-1-5 1-6 2-2 5-3 7-2l0 0 59 16 0 0 0 0 115 116c3 2 3 6 0 9z m-163-121l9 35 26-26z m81-34l-38 0c0 0 0 0 0 0-3 0-6-3-6-6l0 0 0-45-213 0 0 314 25 0 0-15c0-1 0-1 0-1 0-5 4-9 9-9 1 0 1 0 1 0l0 0 143 0c5 0 9 4 9 9 0 0 0 0 0 0l0 16 26 0 0-44 0 0c0-4 3-7 6-7l38 0c4 0 7 3 7 7l0 68 0 0c0 0 0 0 0 0 0 15-12 27-27 27 0 0 0 0-1 0l-74 0 0 18c0 4-4 8-8 8l0 0-95 0 0 0c0 0 0 0 0 0-5 0-8-4-8-8 0 0 0 0 0-1l0-17-75 0c0 0 0 0 0 0-15 0-27-12-27-27 0 0 0 0 0 0l0 0 0-362 0 0c0 0 0 0 0 0 0-15 12-27 27-27 0 0 0 0 1 0l0 0 258 0c1 0 1 0 2 0 15 0 27 12 27 27 0 0 0 0 0 0l0 0 0 69c0 3-3 6-7 6z"/>
<glyph unicode="&#115;" d="M329 256c0 20-7 37-21 52-15 14-32 21-52 21-20 0-37-7-52-21-14-15-21-32-21-52 0-20 7-37 21-52 15-14 32-21 52-21 20 0 37 7 52 21 14 15 21 32 21 52z m146 31l0-63c0-3 0-5-2-7-1-2-3-3-6-4l-52-8c-4-10-8-19-12-26 7-9 17-22 31-39 2-2 3-5 3-7 0-3-1-5-3-7-5-7-14-17-28-31-14-13-23-20-27-20-2 0-5 1-7 3l-40 31c-8-5-17-8-26-11-3-26-6-44-8-53-1-6-5-8-10-8l-64 0c-2 0-5 0-7 2-2 2-3 4-3 6l-8 53c-9 3-18 6-26 10l-40-30c-2-2-4-3-7-3-3 0-5 1-7 3-24 22-40 38-47 48-2 2-2 4-2 7 0 2 0 4 2 6 3 4 8 11 14 19 7 9 12 16 16 21-5 9-9 19-12 28l-52 8c-3 0-5 1-6 3-2 2-2 4-2 7l0 63c0 3 0 5 2 7 1 2 3 3 5 4l53 8c3 8 7 17 12 26-8 11-18 24-31 39-2 3-3 5-3 7 0 2 1 4 3 7 5 7 14 17 28 30 14 14 23 21 27 21 2 0 5-1 7-3l40-31c8 5 17 8 26 11 3 26 6 44 8 53 1 6 5 8 10 8l64 0c2 0 5 0 7-2 2-2 3-4 3-6l8-53c9-3 18-6 26-10l40 30c2 2 4 3 7 3 3 0 5-1 7-3 25-23 41-39 47-49 2-1 2-3 2-6 0-2 0-4-2-6-3-4-8-11-14-19-7-9-12-16-16-21 5-9 9-18 12-28l52-8c3 0 5-1 6-3 2-2 2-4 2-7z"/>
<glyph unicode="&#116;" d="M253 492c65 0 120-22 167-67 46-45 70-100 72-165 0-65-22-121-68-167-45-47-100-71-165-73-65 0-121 22-167 68-47 45-71 100-72 165-1 65 21 121 67 167 46 47 101 71 166 72m27-78c-15 0-26-4-34-13-8-8-12-16-12-25 0-10 2-17 8-23 6-5 14-8 25-8 13 0 24 4 31 11 8 8 12 17 12 28 0 20-10 30-30 30m-62-304c10 0 25 4 43 13 19 9 37 22 54 40 0 0-9 12-9 12-16-12-28-18-37-18-4 0-5 6-2 19 0 0 22 82 22 82 9 33 5 49-11 49-11 0-26-5-46-15-20-10-40-22-59-38 0 0 8-13 8-13 18 11 31 17 38 17 4 0 4-6 0-17 0 0-18-78-18-78-9-36-3-53 17-53"/>
<glyph unicode="&#117;" d="M493 502c13-36 11-70-4-102-15-32-37-59-65-81 0 0 9-12 9-12 5-9 6-19 3-27 0 0-25-81-25-81-4-11-10-18-18-24 0 0-238-168-238-168-14-10-25-9-32 2 0 0-108 156-108 156-4 6-6 13-5 20 2 7 5 13 11 17 0 0 238 168 238 168 9 6 18 9 27 9 0 0 81 0 81 0 11 0 19-5 25-13 0 0 14-21 14-21 58 44 77 93 59 147-4 9-1 16 9 20 11 3 17-1 19-10m-110-240c13 11 19 25 17 41 0 0-16-8-16-8-3-1-5-2-6-2-7 0-11 3-15 9-4 10-1 17 8 21 0 0 13 7 13 7-17 11-32 11-47 0-10-6-16-15-18-26-2-12 1-22 7-32 7-8 15-14 27-16 11-2 21 0 30 6"/>
<glyph unicode="&#118;" d="M435 486c8 0 14-2 19-7 4-5 7-11 7-18 0 0 0-435 0-435 0 0-103 0-103 0 0 0 0 435 0 435 0 17 7 25 21 25 0 0 56 0 56 0m-153-153c7 0 13-3 18-8 5-5 7-11 7-18 0 0 0-281 0-281 0 0-102 0-102 0 0 0 0 281 0 281 0 17 7 26 20 26 0 0 57 0 57 0m-154-154c8 0 14-2 18-7 5-6 8-12 8-18 0 0 0-128 0-128 0 0-103 0-103 0 0 0 0 128 0 128 0 17 7 25 21 25 0 0 56 0 56 0"/>
<glyph unicode="&#119;" d="M331 427l-150 0 0-107 150 0z m-22-86l-106 0 0 64 106 0z m139 118l-11 0 0 53-384 0 0-85-21 0 0-22 21 0 0-42-21 0 0-22 21 0 0-42-21 0 0-22 21 0 0-42-21 0 0-22 21 0 0-42-21 0 0-22 21 0 0-42-21 0 0-22 21 0 0-85 384 0 0 96 11 0c24 0 43 19 43 43l0 277c0 24-19 43-43 43z m0-22c12 0 21-9 21-21l0-43-32 0 0 64z m-11-149l0 64 32 0 0-64z m32-21l0-64-32 0 0 64z m-53-246l-341 0 0 64 21 0 0 22-21 0 0 42 21 0 0 22-21 0 0 42 21 0 0 22-21 0 0 42 21 0 0 22-21 0 0 42 21 0 0 22-21 0 0 42 21 0 0 22-21 0 0 64 341 0z m32 96l-11 0 0 64 32 0 0-42c0-12-9-22-21-22z"/>
<glyph unicode="&#121;" d="M288 454c58 0 107-21 148-62 40-41 61-90 61-148 0-58-21-108-61-149-41-41-90-61-148-61-49 0-92 15-129 45 0 0 36 38 36 38 28-21 59-31 93-31 43 0 80 15 110 46 31 31 46 68 46 112 0 43-15 81-46 111-30 31-67 46-110 46-43 0-79-14-110-44-31-30-46-66-47-108 0 0 73 0 73 0 0 0-94-105-94-105 0 0-95 105-95 105 0 0 64 0 64 0 1 56 21 105 62 145 41 40 90 60 147 60"/>
<glyph unicode="&#120;" d="M158 256c-29-1-52-12-71-34l-35 0c-15 0-27 3-37 11-10 7-15 17-15 31 0 63 11 94 33 94 1 0 5-1 12-5 6-4 15-8 26-12 10-3 21-5 31-5 12 0 24 2 36 6-1-7-1-13-1-18 0-24 7-47 21-68z m286-170c0-21-7-38-20-50-13-13-30-19-51-19l-234 0c-21 0-38 6-51 19-13 12-20 29-20 50 0 10 1 19 1 28 1 9 2 18 4 29 2 10 4 20 7 29 3 9 7 17 11 26 5 8 11 15 17 21 6 6 14 11 23 15 9 3 19 5 30 5 1 0 5-2 11-6 6-4 12-8 19-13 8-4 17-9 29-12 12-4 24-6 36-6 12 0 24 2 36 6 12 3 21 8 29 12 7 5 13 9 19 13 6 4 10 6 11 6 11 0 21-2 30-5 9-4 17-9 23-15 6-6 12-13 17-21 4-9 8-17 11-26 3-9 5-19 7-29 2-11 3-20 4-29 0-9 1-18 1-28z m-273 341c0-19-7-35-20-49-14-13-30-20-49-20-18 0-35 7-48 20-13 14-20 30-20 49 0 19 7 35 20 48 13 13 30 20 48 20 19 0 35-7 49-20 13-13 20-29 20-48z m187-103c0-28-10-52-30-72-20-20-44-30-72-30-28 0-52 10-72 30-20 20-30 44-30 72 0 29 10 53 30 73 20 20 44 30 72 30 28 0 52-10 72-30 20-20 30-44 30-73z m154-60c0-14-5-24-15-31-10-8-22-11-37-11l-35 0c-19 22-42 33-71 34 14 21 21 44 21 68 0 5 0 11-1 18 12-4 24-6 36-6 10 0 21 2 31 5 11 4 20 8 26 12 7 4 11 5 12 5 22 0 33-31 33-94z m-34 163c0-19-7-35-20-49-13-13-30-20-48-20-19 0-35 7-49 20-13 14-20 30-20 49 0 19 7 35 20 48 14 13 30 20 49 20 18 0 35-7 48-20 13-13 20-29 20-48z"/>
<glyph unicode="&#122;" d="M256 512c-141 0-256-115-256-256 0-141 115-256 256-256 141 0 256 115 256 256 0 141-115 256-256 256z m128-288l-96 0 0-96-64 0 0 96-96 0 0 64 96 0 0 96 64 0 0-96 96 0z"/>
<glyph unicode="&#66;" d="M256 484c-126 0-228-102-228-228 0-126 102-228 228-228 126 0 228 102 228 228 0 126-102 228-228 228z m129-183l-153-153c-5-5-11-7-18-7-7 0-13 2-18 7l-74 75c-10 10-10 26 0 36 10 10 26 10 36 0l56-56 135 135c10 10 26 10 36 0 10-10 10-27 0-37z"/>
<glyph unicode="&#65;" d="M367 176c6-6 9-13 9-22 0-8-3-16-9-22-6-5-13-8-22-8-8 0-16 3-22 8 0 0-68 78-68 78 0 0-67-78-67-78-6-5-14-8-22-8-9 0-16 3-22 8-6 6-8 14-8 22 0 9 2 16 8 22 0 0 71 80 71 80 0 0-71 81-71 81-6 6-8 13-8 22 0 8 2 16 8 22 6 5 13 8 22 8 8 0 16-3 22-8 0 0 67-78 67-78 0 0 68 78 68 78 6 5 14 8 22 8 9 0 16-3 22-8 6-6 9-14 9-22 0-9-3-16-9-22 0 0-71-81-71-81 0 0 71-80 71-80"/>
<glyph unicode="&#67;" d="M64 448l0-384 384 0 0 384z m352-352l-320 0 0 320 320 0z m-288 64l192 0 0 32-192 0z m256 96l-256 0 0-32 256 0z m0 64l-256 0 0-32 256 0z"/>
<glyph unicode="&#68;" d="M470 438c-56 56-148 56-204 0l-233-231c-44-44-44-115 0-158 43-44 114-44 158 0l234 230c31 32 31 82 0 114-32 31-82 31-114 0l-175-176c-6-6-6-16 0-23 6-6 16-6 23 0l175 176c19 19 49 19 68 0 19-19 19-49 0-68l-234-231c-31-31-81-31-113 0-31 32-31 82 0 113l232 229c43 44 114 44 158 0 44-44 44-115 0-158l-173-174c-7-6-7-16 0-22 6-7 16-7 22 0l176 175c56 56 56 148 0 204z"/>
<glyph unicode="&#70;" d="M256 484c-126 0-228-102-228-228 0-126 102-228 228-228 126 0 228 102 228 228 0 126-102 228-228 228z m94-322c-5-5-12-7-18-7-7 0-13 3-19 7l-57 58-58-58c-5-5-11-7-18-7-6 0-13 3-18 7-10 10-10 26 0 36l58 58-58 58c-10 10-10 26 0 36 10 10 26 10 36 0l58-58 57 58c10 10 26 10 36 0 10-10 10-26 0-36l-57-58 57-58c11-10 11-26 1-36z"/>
<glyph unicode="&#69;" d="M416 224l-320 0 0-32 320 0z m0-64l-320 0 0-32 320 0z m0-64l-320 0 0-32 320 0z m0 416l-32 0 0-208-256 0 0 208-128 0 0-512 512 0 0 416z m32-480l-384 0 0 224 384 0z m-96 448l-64 0 0-144 64 0z"/>
</font></defs></svg>
